%YAML 1.1
%TAG !u! tag:unity3d.com,2011:
--- !u!114 &11400000
MonoBehaviour:
  m_ObjectHideFlags: 0
  m_PrefabParentObject: {fileID: 0}
  m_PrefabInternal: {fileID: 0}
  m_GameObject: {fileID: 0}
  m_Enabled: 1
  m_EditorHideFlags: 0
  m_Script: {fileID: 11500000, guid: c556a48d7c9c46b4a9ce236fc39f6ebe, type: 3}
  m_Name: BombStart
  m_EditorClassIdentifier: 
  DeveloperDescription: 
  Value: 0
